(•‿•)
(・∀・)
◉‿◉
｡◕‿◕｡
(. ❛ ᴗ ❛.)
(θ‿θ)
ʘ‿ʘ
(✷‿✷)
(◔‿◔)
(◕ᴗ◕✿)
(ʘᴗʘ✿)
(人 •͈ᴗ•͈)
(◍•ᴗ•◍)
( ╹▽╹ )
(≧▽≦)
(☆▽☆)
(✯ᴗ✯)
ಡ ͜ ʖ ಡ
(ㆁωㆁ)
<(￣︶￣)>
(*´ω｀*)
( ꈍᴗꈍ)
(✿^‿^)
^_________^
(◡ ω ◡)
( ´◡‿ゝ◡`)
(｡•̀ᴗ-)✧
(◠‿◕)
(◠‿・)—☆
✧◝(⁰▿⁰)◜✧
(人*´∀｀)｡*ﾟ+
(ﾉ◕ヮ◕)ﾉ*.✧
