•́  ‿ ,•̀
ಥ‿ಥ
ʕ´• ᴥ•̥ʔ
༎ຶ‿༎ຶ
( ；∀；)
(´；ω；｀)
(･ัω･ั)
(╯︵╰,)
Ó╭╮Ò
(っ˘̩╭╮˘̩)っ
( ･ั﹏･ั)
(｡ŏ﹏ŏ)
(๑´•.̫ • ๑)
(´ . .̫ . )
(｡•́︿•̀｡)
(｡ﾉω＼｡)
ಥ╭╮ಥ
(ᗒᗩᗕ)
( ≧Д≦)
.·´¯(>▂<)´¯·.
( ⚈̥̥⌢⚈̥̥)
ಥ_ಥ
(´;︵;)
༼;´༎ຶ ۝ ༎ຶ༽
｡:ﾟ(;´∩`;)ﾟ:｡
(༎ຶ ෴ ༎ຶ)
( ꈨຶ ˙̫̮ ꈨຶ )
(〒﹏〒)
(个_个)
(╥﹏╥)
(-̩̩-̩̩-̩̩-̩̩-̩̩___-̩̩-̩̩-̩̩-̩̩-̩̩)
(´°̥̥ω°̥̥｀)
